{
	"funds/search?": {
		"items": [
			{ "key": "date", "field": "date", "type": "date" },
			{ "key": "name", "field": "name", "type": "string" },
			{ "key": "ticker", "field": "ticker", "type": "string" },
			{ "key": "isin", "field": "isin", "type": "string" },
			{ "key": "wkn", "field": "wkn", "type": "string" },
			{ "key": "sedol", "field": "sedol", "type": "string" },
			{ "key": "type", "field": "type", "type": "string" },
			{ "key": "currency", "field": "currency", "type": "string" },
			{ "key": "shares", "field": "shares", "type": "number" },
			{ "key": "total_assets", "field": "total_assets", "type": "number" },
			{ "key": "nav", "field": "nav", "type": "number" },
			{ "key": "sfdr", "field": "sfdr", "type": "number" },
			{ "key": "ter", "field": "ter", "type": "number" },
			{ "key": "inception", "field": "inception", "type": "date" },
			{ "key": "dated", "field": "dated", "type": "date" }
		],
		"200": {
			"status": 200,
	    "success": true,
			"record_count": 100,
	    "total_records": 4411,
	    "page_number": 1,
	    "page_size": 100,
	    "total_pages": 45,
	    "more_pages": true,
			"data": [
				{
          "id": 102392,
          "date": "20260509",
          "name": "Amundi Core Stoxx Europe 600 UCITS ETF Acc",
          "ticker": "",
          "isin": "LU0908500753",
          "wkn": "LYX0Q0",
          "sedol": "",
          "type": "ETF",
          "currency": "EUR",
          "shares": "",
          "total_assets": "18558.33M",
          "nav": "300.34",
          "sfdr": "6",
          "ter": "0.0700",
          "inception": "20130403",
          "dated": "20260507"
        },
				{
          "id": 106571,
          "date": "20260509",
          "name": "Xtrackers World Equity Enhanced Active UCITS ETF 1C",
          "ticker": "XEEW GY",
          "isin": "IE00094GSCQ4",
          "wkn": "DBX0WP",
          "sedol": "",
          "type": "ETF",
          "currency": "USD",
          "shares": "12236619",
          "total_assets": "394630963",
          "nav": "32.25",
          "sfdr": "8",
          "ter": "0.0025",
          "inception": "20250514",
          "dated": "20260507"
        },
				{}
			]
		}
	},
	"funds/holdings/search?": {
		"items": [
			{ "key": "date", "field": "date", "type": "date" },
			{ "key": "index_ticker", "field": "index_ticker", "type": "string" },
			{ "key": "index_isin", "field": "index_isin", "type": "string" },
			{ "key": "weighting", "field": "weighting", "type": "number" },
			{ "key": "name", "field": "name", "type": "string" },
			{ "key": "ticker", "field": "ticker", "type": "string" },
			{ "key": "isin", "field": "isin", "type": "string" },
			{ "key": "wkn", "field": "wkn", "type": "string" },
			{ "key": "sedol", "field": "sedol", "type": "string" },
			{ "key": "country", "field": "country", "type": "string" },
			{ "key": "currency", "field": "currency", "type": "string" },
			{ "key": "market_price", "field": "market_price", "type": "number" },
			{ "key": "shares", "field": "shares", "type": "number" },
			{ "key": "market_value", "field": "market_value", "type": "number" },
			{ "key": "dated", "field": "dated", "type": "date" }
		],
		"200": {
			"status": 200,
	    "success": true,
			"record_count": 100,
	    "total_records": 2411770,
	    "page_number": 1,
	    "page_size": 100,
	    "total_pages": 24118,
	    "more_pages": true,
			"data": [
				{
          "id": 4365,
          "date": "20260509",
          "index_ticker": "",
          "index_isin": "LU0908500753",
          "weighting": "0.0389674",
          "name": "ASML HOLDING NV",
          "ticker": "ASML NA",
          "isin": "NL0010273215",
          "wkn": "",
          "sedol": "",
          "country": "Netherlands",
          "currency": "EUR",
          "market_price": "",
          "shares": "559490",
          "market_value": "",
          "dated": "20260506"
        },
        {
          "id": 4366,
          "date": "20260509",
          "index_ticker": "",
          "index_isin": "LU0908500753",
          "weighting": "0.02054824",
          "name": "HSBC HOLDINGS PLC",
          "ticker": "HSBA LN",
          "isin": "GB0005405286",
          "wkn": "",
          "sedol": "",
          "country": "United Kingdom",
          "currency": "GBP",
          "market_price": "",
          "shares": "24769097",
          "market_value": "",
          "dated": "20260506"
        },
        {
          "id": 4367,
          "date": "20260509",
          "index_ticker": "",
          "index_isin": "LU0908500753",
          "weighting": "0.01900984",
          "name": "ROCHE HOLDING AG - GENUSSS CHF",
          "ticker": "ROP SE",
          "isin": "CH1499059983",
          "wkn": "",
          "sedol": "",
          "country": "Switzerland",
          "currency": "CHF",
          "market_price": "",
          "shares": "1013461",
          "market_value": "",
          "dated": "20260506"
        },
				{}
			]
		}
	}
}
